…
### Question 4

Create a new variable called `born_country_us` that has the value
`"USA"` if the laureate is born in the US, and `"Other"` otherwise. How
many of the winners are born in the US?

``` r
nobel_living_science <- nobel_living_science %>% #Wholesale stealing from earlier code, as one should.
  mutate(
    born_country_us = if_else(born_country == "USA", "USA", "Other"))
nobel_living_science %>%
  filter(born_country_us == "USA")
```

    ## # A tibble: 105 x 28
    ##       id firstname  surname  year category affiliation  city  country born_date 
    ##    <dbl> <chr>      <chr>   <dbl> <chr>    <chr>        <chr> <chr>   <date>    
    ##  1    95 Leon N.    Cooper   1972 Physics  Brown Unive~ Prov~ USA     1930-02-28
    ##  2   103 Ben R.     Mottel~  1975 Physics  Nordita      Cope~ Denmark 1926-07-09
    ##  3   106 Samuel C.~ Ting     1976 Physics  Massachuset~ Camb~ USA     1936-01-27
    ##  4   107 Philip W.  Anders~  1977 Physics  Bell Teleph~ Murr~ USA     1923-12-13
    ##  5   112 Robert Wo~ Wilson   1978 Physics  Bell Labora~ Holm~ USA     1936-01-10
    ##  6   113 Sheldon    Glashow  1979 Physics  Harvard Uni~ Camb~ USA     1932-12-05
    ##  7   115 Steven     Weinbe~  1979 Physics  Harvard Uni~ Camb~ USA     1933-05-03
    ##  8   138 Jerome I.  Friedm~  1990 Physics  Massachuset~ Camb~ USA     1930-03-28
    ##  9   143 Russell A. Hulse    1993 Physics  Princeton U~ Prin~ USA     1950-11-28
    ## 10   144 Joseph H.  Taylor~  1993 Physics  Princeton U~ Prin~ USA     1941-03-29
    ## # ... with 95 more rows, and 19 more variables: died_date <date>, gender <chr>,
    ## #   born_city <chr>, born_country <chr>, born_country_code <chr>,
    ## #   died_city <chr>, died_country <chr>, died_country_code <chr>,
    ## #   overall_motivation <chr>, share <dbl>, motivation <chr>,
    ## #   born_country_original <chr>, born_city_original <chr>,
    ## #   died_country_original <chr>, died_city_original <chr>, city_original <chr>,
    ## #   country_original <chr>, country_us <chr>, born_country_us <chr>
…
In a single pipeline, filter for laureates who won their prize in the
US, but were born outside of the US, and then create a frequency table
(with the `count()` function) for their birth country (`born_country`)
and arrange the resulting data frame in descending order of number of
observations for each country. Which country is the most common?

``` r
nobel_living_science %>%  #What tibble we want
  filter(country_us == "USA", born_country_us == "Other") %>% #Filtering for people who won in US but were born elsewhere
  count(born_country) %>% #Table of different countries
  arrange(desc(n)) #ARRANGEd by DESCending order of n (of born_country)
```

    ## # A tibble: 21 x 2
    ##    born_country       n
    ##    <chr>          <int>
    ##  1 Germany            7
    ##  2 United Kingdom     7
    ##  3 China              5
    ##  4 Canada             4
    ##  5 Japan              3
    ##  6 Australia          2
    ##  7 Israel             2
    ##  8 Norway             2
    ##  9 Austria            1
    ## 10 Finland            1
    ## # ... with 11 more rows
…
